Re-Presenting Data: IDENTIFYING TOPICS OF NEWS HEADLINES
…
#analysis of Number of headlines by Published date,Source,Topic
analysis_PST<-analysis%>%
  select(Published,Source,Topic)%>%
  group_by(Published,Source,Topic)%>%
  count()
analysis_PST

# A tibble: 28,652 x 4
# Groups:   Published, Source, Topic [28,652]
   Published  Source            Topic                  n
   <date>     <chr>             <chr>              <int>
 1 2019-12-31 Channel News Asia Covid-Air Travel       1
 2 2019-12-31 Channel News Asia Covid-Economy          3
 3 2019-12-31 Channel News Asia Covid-Education        1
 4 2019-12-31 Channel News Asia Covid-Outbreaks        4
 5 2019-12-31 Channel News Asia SG Fake News           2
 6 2019-12-31 Channel News Asia SG Policy              1
 7 2019-12-31 Channel News Asia World News             2
 8 2019-12-31 Mothership        Crime                  1
 9 2019-12-31 Mothership        Entertainment News     2
10 2019-12-31 Mothership        SG Accidents           1
# ... with 28,642 more rows
…
Since Faceting by Topics, makes the plot less visible we will do an analysis by source by using the filter option and selecting Channel News Asia as a media source for example.

#analysis of Number of headlines by Published date,Month,Topic, Source = Channel news Asia
analysis_CNA<-analysis%>%
  select(Published,Source,Topic)%>%
  group_by(Published,Source,Topic)%>%
  filter(Source== 'Channel News Asia')%>%
  count()
analysis_CNA

# A tibble: 6,559 x 4
# Groups:   Published, Source, Topic [6,559]
   Published  Source            Topic                n
   <date>     <chr>             <chr>            <int>
 1 2019-12-31 Channel News Asia Covid-Air Travel     1
 2 2019-12-31 Channel News Asia Covid-Economy        3
 3 2019-12-31 Channel News Asia Covid-Education      1
 4 2019-12-31 Channel News Asia Covid-Outbreaks      4
 5 2019-12-31 Channel News Asia SG Fake News         2
 6 2019-12-31 Channel News Asia SG Policy            1
 7 2019-12-31 Channel News Asia World News           2
 8 2020-01-01 Channel News Asia Covid-Air Travel     2
 9 2020-01-01 Channel News Asia Covid-Economy        1
10 2020-01-01 Channel News Asia Covid-Education      4
# ... with 6,549 more rows
…
